{
  "development": {
    "username": "postgres",
    "password": "Idjoel3007",
    "database": "movie-genre-review_dev",
    "host": "127.0.0.1",
    "dialect": "postgres"
  },
  "test": {
    "username": "postgres",
    "password": "Idjoel3007",
    "database": "movie-genre-review_test",
    "host": "127.0.0.1",
    "dialect": "postgres"
  },
  "production": {
    "username": "sqfzvwwymdrvvq",
    "password": "9e65d979be5cce8175d5e22d24b7534a1037028e53a0caaa1a1c15769beef116",
    "database": "d3ggq8sqmqrt9r",
    "host": "ec2-54-160-18-230.compute-1.amazonaws.com",
    "dialect": "postgres"
  }
}